{
  "$schema": "../../../../node_modules/nx/schemas/project-schema.json",
  "sourceRoot": "libs/api/feature/auth/src",
  "projectType": "library",
  "targets": {
    "lint": {
      "executor": "@nrwl/linter:eslint",
      "outputs": [
        "{options.outputFile}"
      ],
      "options": {
        "lintFilePatterns": [
          "libs/api/feature/auth/**/*.ts"
        ]
      }
    },
    "test": {
      "executor": "@nrwl/jest:jest",
      "outputs": [
        "coverage/libs/api/feature/auth"
      ],
      "options": {
        "jestConfig": "libs/api/feature/auth/jest.config.ts",
        "passWithNoTests": true
      }
    }
  },
  "tags": []
}
