{
  "projectType": "library",
  "sourceRoot": "libs/web/data-access/me/src",
  "prefix": "orel",
  "targets": {
    "test": {
      "executor": "@nrwl/jest:jest",
      "outputs": ["coverage/libs/web/data-access/me"],
      "options": {
        "jestConfig": "libs/web/data-access/me/jest.config.ts",
        "passWithNoTests": true
      }
    },
    "lint": {
      "executor": "@nrwl/linter:eslint",
      "options": {
        "lintFilePatterns": [
          "libs/web/data-access/me/**/*.ts",
          "libs/web/data-access/me/**/*.html"
        ]
      }
    }
  },
  "tags": []
}
