{
  "projectType": "library",
  "sourceRoot": "libs/web/feature/page-not-found/src",
  "prefix": "orel",
  "targets": {
    "test": {
      "executor": "@nrwl/jest:jest",
      "outputs": [
        "coverage/libs/web/feature/page-not-found"
      ],
      "options": {
        "jestConfig": "libs/web/feature/page-not-found/jest.config.ts",
        "passWithNoTests": true
      }
    },
    "lint": {
      "executor": "@nrwl/linter:eslint",
      "options": {
        "lintFilePatterns": [
          "libs/web/feature/page-not-found/**/*.ts",
          "libs/web/feature/page-not-found/**/*.html"
        ]
      }
    }
  },
  "tags": []
}
